…
### Step 1: `getConsensusProfile`

`getConsensusProfile()` takes a `Biostrings::DNAMultipleAlignment`
object as input and returns an `RprimerProfile` object, which contains
all the information needed for the subsequent design process.

``` r
 myConsensusProfile <- getConsensusProfile(myAlignment, iupacThreshold = 0.05)
```

The output can be coerced to a tibble or data frame:

``` r
tibble::as_tibble(myConsensusProfile)
#> # A tibble: 7,208 x 11
#>    position     a     c     g     t other  gaps majority identity iupac entropy
#>       <int> <dbl> <dbl> <dbl> <dbl> <dbl> <dbl> <chr>       <dbl> <chr>   <dbl>
#>  1        1  0     0     0.59  0        0 0.41  G            1    G        0   
#>  2        2  0     0     0.71  0        0 0.290 G            1    G        0   
#>  3        3  0     0.71  0     0        0 0.290 C            1    C        0   
#>  4        4  0.71  0     0     0        0 0.290 A            1    A        0   
#>  5        5  0     0     0.7   0.01     0 0.290 G            0.99 G        0.11
#>  6        6  0.71  0     0     0        0 0.290 A            1    A        0   
#>  7        7  0     0.72  0     0        0 0.28  C            1    C        0   
#>  8        8  0     0.76  0     0        0 0.24  C            1    C        0   
#>  9        9  0.75  0.01  0     0        0 0.24  A            0.99 A        0.1 
#> 10       10  0.02  0.75  0     0.03     0 0.2   C            0.94 C        0.4 
#> # ... with 7,198 more rows
```
…
myProbes <- getOligos(myConsensusProfile,
                      length = 16:22,
                      maxGapFrequency = 0.05,
                      maxDegeneracy = 4,
                      gcClamp = FALSE,
                      avoid3EndRuns = FALSE,
                      avoid5EndG = TRUE,
                      minEndIdentity = NULL,
                      gcRange = c(0.40, 0.60),
                      tmRange = c(50, 75),
                      showAllVariants = TRUE)

## Output, cocered to a tibble:
tibble::as_tibble(myPrimers)
#> # A tibble: 233 x 15
#>    start   end length majority majorityRc gcMajority tmMajority identity iupac
#>    <int> <int>  <int> <chr>    <chr>           <dbl>      <dbl>    <dbl> <chr>
#>  1    51    68     18 GCTCCTG~ <NA>             0.56       55.9     0.99 GCTC~
#>  2    52    69     18 CTCCTGG~ <NA>             0.56       54.0     0.99 CTCC~
#>  3    53    70     18 TCCTGGC~ <NA>             0.56       56.2     0.99 TCCT~
#>  4    57    74     18 <NA>     AATAGCAGT~       0.44       51.2     0.98 <NA> 
#>  5    61    78     18 TCACTAC~ <NA>             0.44       50.9     0.98 TYAC~
#>  6    62    79     18 CACTACT~ <NA>             0.44       51.2     0.98 YACT~
#>  7    63    80     18 <NA>     CTGCTCAAT~       0.44       50.8     0.99 <NA> 
#>  8    64    81     18 <NA>     CCTGCTCAA~       0.5        51.7     0.99 <NA> 
#>  9    65    82     18 <NA>     GCCTGCTCA~       0.5        54.0     0.99 <NA> 
#> 10    66    83     18 <NA>     AGCCTGCTC~       0.5        55.8     0.99 <NA> 
#> # ... with 223 more rows, and 6 more variables: iupacRc <chr>,
#> #   degeneracy <int>, all <I<list>>, allRc <I<list>>, gcAll <I<list>>,
#> #   tmAll <I<list>>
```
…
